project/verilog/pixelSensor_tb.vcd
$date
	Wed Nov 10 12:14:52 2021
$end
$version
	Icarus Verilog
$end
$timescale
	1ps
$end
$scope module pixelSensor_tb $end
$var wire 1 ! anaReset $end
$var wire 8 " pixData [7:0] $end
$var wire 1 # readStateOn $end
$var wire 1 $ read3 $end
$var wire 1 % read2 $end
$var wire 1 & read1 $end
$var wire 1 ' read0 $end
$var wire 1 ( expose $end
$var wire 1 ) erase $end
$var wire 1 * convert $end
$var wire 1 + anaRamp $end
$var wire 1 , anaBias1 $end
$var reg 1 - clk $end
$var reg 8 . data [7:0] $end
$var reg 8 / pixelDataOut [7:0] $end
$var reg 1 0 reset $end
$scope module fsm1 $end
$var wire 1 - clk $end
$var wire 1 0 reset $end
$var reg 1 * convert $end
$var reg 1 ) erase $end
$var reg 1 ( expose $end
$var reg 3 1 next_state [2:0] $end
$var reg 1 ' read0 $end
$var reg 1 & read1 $end
$var reg 1 % read2 $end
$var reg 1 $ read3 $end
$var reg 3 2 readState [2:0] $end
$var reg 1 # readStateOn $end
$var reg 3 3 state [2:0] $end
$var integer 32 4 counter [31:0] $end
$upscope $end
$scope module pa1 $end
$var wire 8 5 DATA [7:0] $end
$var wire 1 ) ERASE $end
$var wire 1 ( EXPOSE $end
$var wire 1 + RAMP $end
$var wire 1 ' READ0 $end
$var wire 1 & READ1 $end
$var wire 1 % READ2 $end
$var wire 1 $ READ3 $end
$var wire 1 ! RESET $end
$var wire 1 , VBN1 $end
$scope module p0 $end
$var wire 8 6 DATA [7:0] $end
$var wire 1 ) ERASE $end
$var wire 1 ( EXPOSE $end
$var wire 1 + RAMP $end
$var wire 1 ' READ $end
$var wire 1 ! RESET $end
$var wire 1 , VBN1 $end
$var reg 1 7 cmp $end
$var reg 8 8 p_data [7:0] $end
$var real 1 9 adc $end
$var real 1 : lsb $end
$var real 1 ; tmp $end
$var real 1 < v_erase $end
$upscope $end
$scope module p1 $end
$var wire 8 = DATA [7:0] $end
$var wire 1 ) ERASE $end
$var wire 1 ( EXPOSE $end
$var wire 1 + RAMP $end
$var wire 1 & READ $end
$var wire 1 ! RESET $end
$var wire 1 , VBN1 $end
$var reg 1 > cmp $end
$var reg 8 ? p_data [7:0] $end
$var real 1 @ adc $end
$var real 1 A lsb $end
$var real 1 B tmp $end
$var real 1 C v_erase $end
$upscope $end
$scope module p2 $end
$var wire 8 D DATA [7:0] $end
$var wire 1 ) ERASE $end
$var wire 1 ( EXPOSE $end
$var wire 1 + RAMP $end
$var wire 1 % READ $end
$var wire 1 ! RESET $end
$var wire 1 , VBN1 $end
$var reg 1 E cmp $end
$var reg 8 F p_data [7:0] $end
$var real 1 G adc $end
$var real 1 H lsb $end
$var real 1 I tmp $end
$var real 1 J v_erase $end
$upscope $end
$scope module p3 $end
$var wire 8 K DATA [7:0] $end
$var wire 1 ) ERASE $end
$var wire 1 ( EXPOSE $end
$var wire 1 + RAMP $end
$var wire 1 $ READ $end
$var wire 1 ! RESET $end
$var wire 1 , VBN1 $end
$var reg 1 L cmp $end
$var reg 8 M p_data [7:0] $end
$var real 1 N adc $end
$var real 1 O lsb $end
$var real 1 P tmp $end
$var real 1 Q v_erase $end
$upscope $end
$upscope $end
$upscope $end
$enddefinitions $end
#500000
$dumpvars
r1.2 Q
r0 P
r0.004705882352941176 O
r0 N
bx M
xL
bx K
r1.2 J
r0 I
r0.004705882352941176 H
r0 G
bx F
xE
bx D
r1.2 C
r0 B
r0.004705882352941176 A
r0 @
bx ?
x>
bx =
r1.2 <
r0 ;
r0.004705882352941176 :
r0 9
bx 8
x7
bx 6
bx 5
b0 4
b0 3
bx 2
b0 1
00
b0 /
b0 .
1-
x,
0+
0*
x)
x(
x'
x&
x%
x$
x#
bx "
1!
$end
#1000000
0L
bx M
r1.2 P
0E
bx F
r1.2 I
0>
bx ?
r1.2 B
07
bx 8
r1.2 ;
0(
0#
1)
0,
0-
#1500000
b1 4
1-
#2000000
0-
#2500000
b10 4
1-
#3000000
0-
#3500000
b11 4
1-
#4000000
0-
#4500000
b100 4
1-
#5000000
0-
#5500000
b101 4
1-
#6000000
0-
#6500000
b100 3
b1 1
b110 4
1-
#7000000
b0 "
b0 5
b0 6
b0 =
b0 D
b0 K
b0 8
b0 ?
b0 F
b0 M
0$
0%
0&
0'
0)
0-
#7500000
b1 3
b0 4
1-
#8000000
1(
0-
#8500000
r1.197647058823529 P
r1.195764705882353 I
r1.197647058823529 B
r1.199058823529412 ;
1,
b1 4
1-
#9000000
0,
0-
#9500000
r1.198117647058824 ;
r1.195294117647059 B
r1.191529411764706 I
r1.195294117647059 P
1,
b10 4
1-
#10000000
0,
0-
#10500000
r1.192941176470588 P
r1.187294117647059 I
r1.192941176470588 B
r1.197176470588235 ;
1,
b11 4
1-
#11000000
0,
0-
#11500000
r1.196235294117647 ;
r1.190588235294117 B
r1.183058823529411 I
r1.190588235294117 P
1,
b100 4
1-
#12000000
0,
0-
#12500000
r1.188235294117647 P
r1.178823529411764 I
r1.188235294117647 B
r1.195294117647059 ;
1,
b101 4
1-
#13000000
0,
0-
#13500000
r1.194352941176471 ;
r1.185882352941176 B
r1.174588235294117 I
r1.185882352941176 P
1,
b110 4
1-
#14000000
0,
0-
#14500000
r1.183529411764705 P
r1.17035294117647 I
r1.183529411764705 B
r1.193411764705882 ;
1,
b111 4
1-
#15000000
0,
0-
#15500000
r1.192470588235294 ;
r1.181176470588235 B
r1.166117647058823 I
r1.181176470588235 P
1,
b1000 4
1-
#16000000
0,
0-
#16500000
r1.178823529411764 P
r1.161882352941176 I
r1.178823529411764 B
r1.191529411764706 ;
1,
b1001 4
1-
#17000000
0,
0-
#17500000
r1.190588235294118 ;
r1.176470588235293 B
r1.157647058823529 I
r1.176470588235293 P
1,
b1010 4
1-
#18000000
0,
0-
#18500000
r1.174117647058823 P
r1.153411764705882 I
r1.174117647058823 B
r1.18964705882353 ;
1,
b1011 4
1-
#19000000
0,
0-
#19500000
r1.188705882352941 ;
r1.171764705882352 B
r1.149176470588235 I
r1.171764705882352 P
1,
b1100 4
1-
#20000000
0,
0-
#20500000
r1.169411764705881 P
r1.144941176470587 I
r1.169411764705881 B
r1.187764705882353 ;
1,
b1101 4
1-
#21000000
0,
0-
#21500000
r1.186823529411765 ;
r1.167058823529411 B
r1.14070588235294 I
r1.167058823529411 P
1,
b1110 4
1-
#22000000
0,
0-
#22500000
r1.16470588235294 P
r1.136470588235293 I
r1.16470588235294 B
r1.185882352941177 ;
1,
b1111 4
1-
#23000000
0,
0-
#23500000
r1.184941176470588 ;
r1.162352941176469 B
r1.132235294117646 I
r1.162352941176469 P
1,
b10000 4
1-
#24000000
0,
0-
#24500000
r1.159999999999999 P
r1.127999999999999 I
r1.159999999999999 B
r1.184 ;
1,
b10001 4
1-
#25000000
0,
0-
#25500000
r1.183058823529412 ;
r1.157647058823528 B
r1.123764705882352 I
r1.157647058823528 P
1,
b10010 4
1-
#26000000
0,
0-
#26500000
r1.155294117647057 P
r1.119529411764705 I
r1.155294117647057 B
r1.182117647058824 ;
1,
b10011 4
1-
#27000000
0,
0-
#27500000
r1.181176470588235 ;
r1.152941176470587 B
r1.115294117647058 I
r1.152941176470587 P
1,
b10100 4
1-
#28000000
0,
0-
#28500000
r1.150588235294116 P
r1.111058823529411 I
r1.150588235294116 B
r1.180235294117647 ;
1,
b10101 4
1-
#29000000
0,
0-
#29500000
r1.179294117647059 ;
r1.148235294117645 B
r1.106823529411763 I
r1.148235294117645 P
1,
b10110 4
1-
#30000000
0,
0-
#30500000
r1.145882352941175 P
r1.102588235294116 I
r1.145882352941175 B
r1.178352941176471 ;
1,
b10111 4
1-
#31000000
0,
0-
#31500000
r1.177411764705883 ;
r1.143529411764704 B
r1.098352941176469 I
r1.143529411764704 P
1,
b11000 4
1-
#32000000
0,
0-
#32500000
r1.141176470588233 P
r1.094117647058822 I
r1.141176470588233 B
r1.176470588235294 ;
1,
b11001 4
1-
#33000000
0,
0-
#33500000
r1.175529411764706 ;
r1.138823529411763 B
r1.089882352941175 I
r1.138823529411763 P
1,
b11010 4
1-
#34000000
0,
0-
#34500000
r1.136470588235292 P
r1.085647058823528 I
r1.136470588235292 B
r1.174588235294118 ;
1,
b11011 4
1-
#35000000
0,
0-
#35500000
r1.17364705882353 ;
r1.134117647058821 B
r1.081411764705881 I
r1.134117647058821 P
1,
b11100 4
1-
#36000000
0,
0-
#36500000
r1.131764705882351 P
r1.077176470588234 I
r1.131764705882351 B
r1.172705882352941 ;
1,
b11101 4
1-
#37000000
0,
0-
#37500000
r1.171764705882353 ;
r1.12941176470588 B
r1.072941176470587 I
r1.12941176470588 P
1,
b11110 4
1-
#38000000
0,
0-
#38500000
r1.127058823529409 P
r1.068705882352939 I
r1.127058823529409 B
r1.170823529411765 ;
1,
b11111 4
1-
#39000000
0,
0-
#39500000
r1.169882352941177 ;
r1.124705882352939 B
r1.064470588235292 I
r1.124705882352939 P
1,
b100000 4
1-
#40000000
0,
0-
#40500000
r1.122352941176468 P
r1.060235294117645 I
r1.122352941176468 B
r1.168941176470589 ;
1,
b100001 4
1-
#41000000
0,
0-
#41500000
r1.168 ;
r1.119999999999997 B
r1.055999999999998 I
r1.119999999999997 P
1,
b100010 4
1-
#42000000
0,
0-
#42500000
r1.117647058823527 P
r1.051764705882351 I
r1.117647058823527 B
r1.167058823529412 ;
1,
b100011 4
1-
#43000000
0,
0-
#43500000
r1.166117647058824 ;
r1.115294117647056 B
r1.047529411764704 I
r1.115294117647056 P
1,
b100100 4
1-
#44000000
0,
0-
#44500000
r1.112941176470585 P
r1.043294117647057 I
r1.112941176470585 B
r1.165176470588236 ;
1,
b100101 4
1-
#45000000
0,
0-
#45500000
r1.164235294117647 ;
r1.110588235294115 B
r1.03905882352941 I
r1.110588235294115 P
1,
b100110 4
1-
#46000000
0,
0-
#46500000
r1.108235294117644 P
r1.034823529411762 I
r1.108235294117644 B
r1.163294117647059 ;
1,
b100111 4
1-
#47000000
0,
0-
#47500000
r1.162352941176471 ;
r1.105882352941173 B
r1.030588235294115 I
r1.105882352941173 P
1,
b101000 4
1-
#48000000
0,
0-
#48500000
r1.103529411764703 P
r1.026352941176468 I
r1.103529411764703 B
r1.161411764705883 ;
1,
b101001 4
1-
#49000000
0,
0-
#49500000
r1.160470588235295 ;
r1.101176470588232 B
r1.022117647058821 I
r1.101176470588232 P
1,
b101010 4
1-
#50000000
0,
0-
#50500000
r1.098823529411761 P
r1.017882352941174 I
r1.098823529411761 B
r1.159529411764706 ;
1,
b101011 4
1-
#51000000
0,
0-
#51500000
r1.158588235294118 ;
r1.096470588235291 B
r1.013647058823527 I
r1.096470588235291 P
1,
b101100 4
1-
#52000000
0,
0-
#52500000
r1.09411764705882 P
r1.00941176470588 I
r1.09411764705882 B
r1.15764705882353 ;
1,
b101101 4
1-
#53000000
0,
0-
#53500000
r1.156705882352942 ;
r1.091764705882349 B
r1.005176470588233 I
r1.091764705882349 P
1,
b101110 4
1-
#54000000
0,
0-
#54500000
r1.089411764705879 P
r1.000941176470586 I
r1.089411764705879 B
r1.155764705882353 ;
1,
b101111 4
1-
#55000000
0,
0-
#55500000
r1.154823529411765 ;
r1.087058823529408 B
r0.9967058823529386 I
r1.087058823529408 P
1,
b110000 4
1-
#56000000
0,
0-
#56500000
r1.084705882352937 P
r0.9924705882352916 I
r1.084705882352937 B
r1.153882352941177 ;
1,
b110001 4
1-
#57000000
0,
0-
#57500000
r1.152941176470589 ;
r1.082352941176467 B
r0.9882352941176445 I
r1.082352941176467 P
1,
b110010 4
1-
#58000000
0,
0-
#58500000
r1.079999999999996 P
r0.9839999999999975 I
r1.079999999999996 B
r1.152000000000001 ;
1,
b110011 4
1-
#59000000
0,
0-
#59500000
r1.151058823529412 ;
r1.077647058823525 B
r0.9797647058823505 I
r1.077647058823525 P
1,
b110100 4
1-
#60000000
0,
0-
#60500000
r1.075294117647055 P
r0.9755294117647035 I
r1.075294117647055 B
r1.150117647058824 ;
1,
b110101 4
1-
#61000000
0,
0-
#61500000
r1.149176470588236 ;
r1.072941176470584 B
r0.9712941176470565 I
r1.072941176470584 P
1,
b110110 4
1-
#62000000
0,
0-
#62500000
r1.070588235294113 P
r0.9670588235294095 I
r1.070588235294113 B
r1.148235294117648 ;
1,
b110111 4
1-
#63000000
0,
0-
#63500000
r1.147294117647059 ;
r1.068235294117643 B
r0.9628235294117625 I
r1.068235294117643 P
1,
b111000 4
1-
#64000000
0,
0-
#64500000
r1.065882352941172 P
r0.9585882352941155 I
r1.065882352941172 B
r1.146352941176471 ;
1,
b111001 4
1-
#65000000
0,
0-
#65500000
r1.145411764705883 ;
r1.063529411764701 B
r0.9543529411764685 I
r1.063529411764701 P
1,
b111010 4
1-
#66000000
0,
0-
#66500000
r1.061176470588231 P
r0.9501176470588215 I
r1.061176470588231 B
r1.144470588235295 ;
1,
b111011 4
1-
#67000000
0,
0-
#67500000
r1.143529411764707 ;
r1.05882352941176 B
r0.9458823529411745 I
r1.05882352941176 P
1,
b111100 4
1-
#68000000
0,
0-
#68500000
r1.056470588235289 P
r0.9416470588235275 I
r1.056470588235289 B
r1.142588235294118 ;
1,
b111101 4
1-
#69000000
0,
0-
#69500000
r1.14164705882353 ;
r1.054117647058818 B
r0.9374117647058805 I
r1.054117647058818 P
1,
b111110 4
1-
#70000000
0,
0-
#70500000
r1.051764705882348 P
r0.9331764705882335 I
r1.051764705882348 B
r1.140705882352942 ;
1,
b111111 4
1-
#71000000
0,
0-
#71500000
r1.139764705882354 ;
r1.049411764705877 B
r0.9289411764705865 I
r1.049411764705877 P
1,
b1000000 4
1-
#72000000
0,
0-
#72500000
r1.047058823529406 P
r0.9247058823529395 I
r1.047058823529406 B
r1.138823529411765 ;
1,
b1000001 4
1-
#73000000
0,
0-
#73500000
r1.137882352941177 ;
r1.044705882352936 B
r0.9204705882352925 I
r1.044705882352936 P
1,
b1000010 4
1-
#74000000
0,
0-
#74500000
r1.042352941176465 P
r0.9162352941176455 I
r1.042352941176465 B
r1.136941176470589 ;
1,
b1000011 4
1-
#75000000
0,
0-
#75500000
r1.136000000000001 ;
r1.039999999999994 B
r0.9119999999999985 I
r1.039999999999994 P
1,
b1000100 4
1-
#76000000
0,
0-
#76500000
r1.037647058823524 P
r0.9077647058823515 I
r1.037647058823524 B
r1.135058823529413 ;
1,
b1000101 4
1-
#77000000
0,
0-
#77500000
r1.134117647058824 ;
r1.035294117647053 B
r0.9035294117647045 I
r1.035294117647053 P
1,
b1000110 4
1-
#78000000
0,
0-
#78500000
r1.032941176470582 P
r0.8992941176470575 I
r1.032941176470582 B
r1.133176470588236 ;
1,
b1000111 4
1-
#79000000
0,
0-
#79500000
r1.132235294117648 ;
r1.030588235294112 B
r0.8950588235294105 I
r1.030588235294112 P
1,
b1001000 4
1-
#80000000
0,
0-
#80500000
r1.028235294117641 P
r0.8908235294117635 I
r1.028235294117641 B
r1.13129411764706 ;
1,
b1001001 4
1-
#81000000
0,
0-
#81500000
r1.130352941176471 ;
r1.02588235294117 B
r0.8865882352941165 I
r1.02588235294117 P
1,
b1001010 4
1-
#82000000
0,
0-
#82500000
r1.0235294117647 P
r0.8823529411764695 I
r1.0235294117647 B
r1.129411764705883 ;
1,
b1001011 4
1-
#83000000
0,
0-
#83500000
r1.128470588235295 ;
r1.021176470588229 B
r0.8781176470588224 I
r1.021176470588229 P
1,
b1001100 4
1-
#84000000
0,
0-
#84500000
r1.018823529411758 P
r0.8738823529411754 I
r1.018823529411758 B
r1.127529411764707 ;
1,
b1001101 4
1-
#85000000
0,
0-
#85500000
r1.126588235294119 ;
r1.016470588235288 B
r0.8696470588235284 I
r1.016470588235288 P
1,
b1001110 4
1-
#86000000
0,
0-
#86500000
r1.014117647058817 P
r0.8654117647058814 I
r1.014117647058817 B
r1.12564705882353 ;
1,
b1001111 4
1-
#87000000
0,
0-
#87500000
r1.124705882352942 ;
r1.011764705882346 B
r0.8611764705882344 I
r1.011764705882346 P
1,
b1010000 4
1-
#88000000
0,
0-
#88500000
r1.009411764705876 P
r0.8569411764705874 I
r1.009411764705876 B
r1.123764705882354 ;
1,
b1010001 4
1-
#89000000
0,
0-
#89500000
r1.122823529411766 ;
r1.007058823529405 B
r0.8527058823529404 I
r1.007058823529405 P
1,
b1010010 4
1-
#90000000
0,
0-
#90500000
r1.004705882352934 P
r0.8484705882352934 I
r1.004705882352934 B
r1.121882352941177 ;
1,
b1010011 4
1-
#91000000
0,
0-
#91500000
r1.120941176470589 ;
r1.002352941176464 B
r0.8442352941176464 I
r1.002352941176464 P
1,
b1010100 4
1-
#92000000
0,
0-
#92500000
r0.9999999999999932 P
r0.8399999999999994 I
r0.9999999999999932 B
r1.120000000000001 ;
1,
b1010101 4
1-
#93000000
0,
0-
#93500000
r1.119058823529413 ;
r0.9976470588235227 B
r0.8357647058823524 I
r0.9976470588235227 P
1,
b1010110 4
1-
#94000000
0,
0-
#94500000
r0.9952941176470521 P
r0.8315294117647054 I
r0.9952941176470521 B
r1.118117647058825 ;
1,
b1010111 4
1-
#95000000
0,
0-
#95500000
r1.117176470588236 ;
r0.9929411764705816 B
r0.8272941176470584 I
r0.9929411764705816 P
1,
b1011000 4
1-
#96000000
0,
0-
#96500000
r0.990588235294111 P
r0.8230588235294114 I
r0.990588235294111 B
r1.116235294117648 ;
1,
b1011001 4
1-
#97000000
0,
0-
#97500000
r1.11529411764706 ;
r0.9882352941176404 B
r0.8188235294117644 I
r0.9882352941176404 P
1,
b1011010 4
1-
#98000000
0,
0-
#98500000
r0.9858823529411699 P
r0.8145882352941174 I
r0.9858823529411699 B
r1.114352941176472 ;
1,
b1011011 4
1-
#99000000
0,
0-
#99500000
r1.113411764705883 ;
r0.9835294117646993 B
r0.8103529411764704 I
r0.9835294117646993 P
1,
b1011100 4
1-
#100000000
0,
0-
#100500000
r0.9811764705882288 P
r0.8061176470588234 I
r0.9811764705882288 B
r1.112470588235295 ;
1,
b1011101 4
1-
#101000000
0,
0-
#101500000
r1.111529411764707 ;
r0.9788235294117582 B
r0.8018823529411764 I
r0.9788235294117582 P
1,
b1011110 4
1-
#102000000
0,
0-
#102500000
r0.9764705882352877 P
r0.7976470588235294 I
r0.9764705882352877 B
r1.110588235294119 ;
1,
b1011111 4
1-
#103000000
0,
0-
#103500000
r1.109647058823531 ;
r0.9741176470588171 B
r0.7934117647058824 I
r0.9741176470588171 P
1,
b1100000 4
1-
#104000000
0,
0-
#104500000
r0.9717647058823465 P
r0.7891764705882354 I
r0.9717647058823465 B
r1.108705882352942 ;
1,
b1100001 4
1-
#105000000
0,
0-
#105500000
r1.107764705882354 ;
r0.969411764705876 B
r0.7849411764705884 I
r0.969411764705876 P
1,
b1100010 4
1-
#106000000
0,
0-
#106500000
r0.9670588235294054 P
r0.7807058823529414 I
r0.9670588235294054 B
r1.106823529411766 ;
1,
b1100011 4
1-
#107000000
0,
0-
#107500000
r1.105882352941178 ;
r0.9647058823529349 B
r0.7764705882352944 I
r0.9647058823529349 P
1,
b1100100 4
1-
#108000000
0,
0-
#108500000
r0.9623529411764643 P
r0.7722352941176474 I
r0.9623529411764643 B
r1.104941176470589 ;
1,
b1100101 4
1-
#109000000
0,
0-
#109500000
r1.104000000000001 ;
r0.9599999999999937 B
r0.7680000000000003 I
r0.9599999999999937 P
1,
b1100110 4
1-
#110000000
0,
0-
#110500000
r0.9576470588235232 P
r0.7637647058823533 I
r0.9576470588235232 B
r1.103058823529413 ;
1,
b1100111 4
1-
#111000000
0,
0-
#111500000
r1.102117647058825 ;
r0.9552941176470526 B
r0.7595294117647063 I
r0.9552941176470526 P
1,
b1101000 4
1-
#112000000
0,
0-
#112500000
r0.9529411764705821 P
r0.7552941176470593 I
r0.9529411764705821 B
r1.101176470588237 ;
1,
b1101001 4
1-
#113000000
0,
0-
#113500000
r1.100235294117648 ;
r0.9505882352941115 B
r0.7510588235294123 I
r0.9505882352941115 P
1,
b1101010 4
1-
#114000000
0,
0-
#114500000
r0.948235294117641 P
r0.7468235294117653 I
r0.948235294117641 B
r1.09929411764706 ;
1,
b1101011 4
1-
#115000000
0,
0-
#115500000
r1.098352941176472 ;
r0.9458823529411704 B
r0.7425882352941183 I
r0.9458823529411704 P
1,
b1101100 4
1-
#116000000
0,
0-
#116500000
r0.9435294117646998 P
r0.7383529411764713 I
r0.9435294117646998 B
r1.097411764705884 ;
1,
b1101101 4
1-
#117000000
0,
0-
#117500000
r1.096470588235295 ;
r0.9411764705882293 B
r0.7341176470588243 I
r0.9411764705882293 P
1,
b1101110 4
1-
#118000000
0,
0-
#118500000
r0.9388235294117587 P
r0.7298823529411773 I
r0.9388235294117587 B
r1.095529411764707 ;
1,
b1101111 4
1-
#119000000
0,
0-
#119500000
r1.094588235294119 ;
r0.9364705882352882 B
r0.7256470588235303 I
r0.9364705882352882 P
1,
b1110000 4
1-
#120000000
0,
0-
#120500000
r0.9341176470588176 P
r0.7214117647058833 I
r0.9341176470588176 B
r1.093647058823531 ;
1,
b1110001 4
1-
#121000000
0,
0-
#121500000
r1.092705882352943 ;
r0.9317647058823471 B
r0.7171764705882363 I
r0.9317647058823471 P
1,
b1110010 4
1-
#122000000
0,
0-
#122500000
r0.9294117647058765 P
r0.7129411764705893 I
r0.9294117647058765 B
r1.091764705882354 ;
1,
b1110011 4
1-
#123000000
0,
0-
#123500000
r1.090823529411766 ;
r0.9270588235294059 B
r0.7087058823529423 I
r0.9270588235294059 P
1,
b1110100 4
1-
#124000000
0,
0-
#124500000
r0.9247058823529354 P
r0.7044705882352953 I
r0.9247058823529354 B
r1.089882352941178 ;
1,
b1110101 4
1-
#125000000
0,
0-
#125500000
r1.08894117647059 ;
r0.9223529411764648 B
r0.7002352941176483 I
r0.9223529411764648 P
1,
b1110110 4
1-
#126000000
0,
0-
#126500000
r0.9199999999999943 P
r0.6960000000000013 I
r0.9199999999999943 B
r1.088000000000001 ;
1,
b1110111 4
1-
#127000000
0,
0-
#127500000
r1.087058823529413 ;
r0.9176470588235237 B
r0.6917647058823543 I
r0.9176470588235237 P
1,
b1111000 4
1-
#128000000
0,
0-
#128500000
r0.9152941176470532 P
r0.6875294117647073 I
r0.9152941176470532 B
r1.086117647058825 ;
1,
b1111001 4
1-
#129000000
0,
0-
#129500000
r1.085176470588237 ;
r0.9129411764705826 B
r0.6832941176470603 I
r0.9129411764705826 P
1,
b1111010 4
1-
#130000000
0,
0-
#130500000
r0.910588235294112 P
r0.6790588235294133 I
r0.910588235294112 B
r1.084235294117649 ;
1,
b1111011 4
1-
#131000000
0,
0-
#131500000
r1.08329411764706 ;
r0.9082352941176415 B
r0.6748235294117663 I
r0.9082352941176415 P
1,
b1111100 4
1-
#132000000
0,
0-
#132500000
r0.9058823529411709 P
r0.6705882352941193 I
r0.9058823529411709 B
r1.082352941176472 ;
1,
b1111101 4
1-
#133000000
0,
0-
#133500000
r1.081411764705884 ;
r0.9035294117647004 B
r0.6663529411764723 I
r0.9035294117647004 P
1,
b1111110 4
1-
#134000000
0,
0-
#134500000
r0.9011764705882298 P
r0.6621176470588253 I
r0.9011764705882298 B
r1.080470588235296 ;
1,
b1111111 4
1-
#135000000
0,
0-
#135500000
r1.079529411764707 ;
r0.8988235294117592 B
r0.6578823529411783 I
r0.8988235294117592 P
1,
b10000000 4
1-
#136000000
0,
0-
#136500000
r0.8964705882352887 P
r0.6536470588235312 I
r0.8964705882352887 B
r1.078588235294119 ;
1,
b10000001 4
1-
#137000000
0,
0-
#137500000
r1.077647058823531 ;
r0.8941176470588181 B
r0.6494117647058842 I
r0.8941176470588181 P
1,
b10000010 4
1-
#138000000
0,
0-
#138500000
r0.8917647058823476 P
r0.6451764705882372 I
r0.8917647058823476 B
r1.076705882352943 ;
1,
b10000011 4
1-
#139000000
0,
0-
#139500000
r1.075764705882355 ;
r0.889411764705877 B
r0.6409411764705902 I
r0.889411764705877 P
1,
b10000100 4
1-
#140000000
0,
0-
#140500000
r0.8870588235294065 P
r0.6367058823529432 I
r0.8870588235294065 B
r1.074823529411766 ;
1,
b10000101 4
1-
#141000000
0,
0-
#141500000
r1.073882352941178 ;
r0.8847058823529359 B
r0.6324705882352962 I
r0.8847058823529359 P
1,
b10000110 4
1-
#142000000
0,
0-
#142500000
r0.8823529411764653 P
r0.6282352941176492 I
r0.8823529411764653 B
r1.07294117647059 ;
1,
b10000111 4
1-
#143000000
0,
0-
#143500000
r1.072000000000002 ;
r0.8799999999999948 B
r0.6240000000000022 I
r0.8799999999999948 P
1,
b10001000 4
1-
#144000000
0,
0-
#144500000
r0.8776470588235242 P
r0.6197647058823552 I
r0.8776470588235242 B
r1.071058823529413 ;
1,
b10001001 4
1-
#145000000
0,
0-
#145500000
r1.070117647058825 ;
r0.8752941176470537 B
r0.6155294117647082 I
r0.8752941176470537 P
1,
b10001010 4
1-
#146000000
0,
0-
#146500000
r0.8729411764705831 P
r0.6112941176470612 I
r0.8729411764705831 B
r1.069176470588237 ;
1,
b10001011 4
1-
#147000000
0,
0-
#147500000
r1.068235294117649 ;
r0.8705882352941126 B
r0.6070588235294142 I
r0.8705882352941126 P
1,
b10001100 4
1-
#148000000
0,
0-
#148500000
r0.868235294117642 P
r0.6028235294117672 I
r0.868235294117642 B
r1.067294117647061 ;
1,
b10001101 4
1-
#149000000
0,
0-
#149500000
r1.066352941176472 ;
r0.8658823529411714 B
r0.5985882352941202 I
r0.8658823529411714 P
1,
b10001110 4
1-
#150000000
0,
0-
#150500000
r0.8635294117647009 P
r0.5943529411764732 I
r0.8635294117647009 B
r1.065411764705884 ;
1,
b10001111 4
1-
#151000000
0,
0-
#151500000
r1.064470588235296 ;
r0.8611764705882303 B
r0.5901176470588262 I
r0.8611764705882303 P
1,
b10010000 4
1-
#152000000
0,
0-
#152500000
r0.8588235294117598 P
r0.5858823529411792 I
r0.8588235294117598 B
r1.063529411764708 ;
1,
b10010001 4
1-
#153000000
0,
0-
#153500000
r1.062588235294119 ;
r0.8564705882352892 B
r0.5816470588235322 I
r0.8564705882352892 P
1,
b10010010 4
1-
#154000000
0,
0-
#154500000
r0.8541176470588187 P
r0.5774117647058852 I
r0.8541176470588187 B
r1.061647058823531 ;
1,
b10010011 4
1-
#155000000
0,
0-
#155500000
r1.060705882352943 ;
r0.8517647058823481 B
r0.5731764705882382 I
r0.8517647058823481 P
1,
b10010100 4
1-
#156000000
0,
0-
#156500000
r0.8494117647058775 P
r0.5689411764705912 I
r0.8494117647058775 B
r1.059764705882355 ;
1,
b10010101 4
1-
#157000000
0,
0-
#157500000
r1.058823529411766 ;
r0.847058823529407 B
r0.5647058823529442 I
r0.847058823529407 P
1,
b10010110 4
1-
#158000000
0,
0-
#158500000
r0.8447058823529364 P
r0.5604705882352972 I
r0.8447058823529364 B
r1.057882352941178 ;
1,
b10010111 4
1-
#159000000
0,
0-
#159500000
r1.05694117647059 ;
r0.8423529411764659 B
r0.5562352941176502 I
r0.8423529411764659 P
1,
b10011000 4
1-
#160000000
0,
0-
#160500000
r0.8399999999999953 P
r0.5520000000000032 I
r0.8399999999999953 B
r1.056000000000002 ;
1,
b10011001 4
1-
#161000000
0,
0-
#161500000
r1.055058823529414 ;
r0.8376470588235247 B
r0.5477647058823562 I
r0.8376470588235247 P
1,
b10011010 4
1-
#162000000
0,
0-
#162500000
r0.8352941176470542 P
r0.5435294117647091 I
r0.8352941176470542 B
r1.054117647058825 ;
1,
b10011011 4
1-
#163000000
0,
0-
#163500000
r1.053176470588237 ;
r0.8329411764705836 B
r0.5392941176470621 I
r0.8329411764705836 P
1,
b10011100 4
1-
#164000000
0,
0-
#164500000
r0.8305882352941131 P
r0.5350588235294151 I
r0.8305882352941131 B
r1.052235294117649 ;
1,
b10011101 4
1-
#165000000
0,
0-
#165500000
r1.051294117647061 ;
r0.8282352941176425 B
r0.5308235294117681 I
r0.8282352941176425 P
1,
b10011110 4
1-
#166000000
0,
0-
#166500000
r0.825882352941172 P
r0.5265882352941211 I
r0.825882352941172 B
r1.050352941176472 ;
1,
b10011111 4
1-
#167000000
0,
0-
#167500000
r1.049411764705884 ;
r0.8235294117647014 B
r0.5223529411764741 I
r0.8235294117647014 P
1,
b10100000 4
1-
#168000000
0,
0-
#168500000
r0.8211764705882308 P
r0.5181176470588271 I
r0.8211764705882308 B
r1.048470588235296 ;
1,
b10100001 4
1-
#169000000
0,
0-
#169500000
r1.047529411764708 ;
r0.8188235294117603 B
r0.5138823529411801 I
r0.8188235294117603 P
1,
b10100010 4
1-
#170000000
0,
0-
#170500000
r0.8164705882352897 P
r0.5096470588235331 I
r0.8164705882352897 B
r1.04658823529412 ;
1,
b10100011 4
1-
#171000000
0,
0-
#171500000
r1.045647058823531 ;
r0.8141176470588192 B
r0.5054117647058861 I
r0.8141176470588192 P
1,
b10100100 4
1-
#172000000
0,
0-
#172500000
r0.8117647058823486 P
r0.5011764705882391 I
r0.8117647058823486 B
r1.044705882352943 ;
1,
b10100101 4
1-
#173000000
0,
0-
#173500000
r1.043764705882355 ;
r0.8094117647058781 B
r0.496941176470592 I
r0.8094117647058781 P
1,
b10100110 4
1-
#174000000
0,
0-
#174500000
r0.8070588235294075 P
r0.492705882352945 I
r0.8070588235294075 B
r1.042823529411767 ;
1,
b10100111 4
1-
#175000000
0,
0-
#175500000
r1.041882352941178 ;
r0.8047058823529369 B
r0.4884705882352979 I
r0.8047058823529369 P
1,
b10101000 4
1-
#176000000
0,
0-
#176500000
r0.8023529411764664 P
r0.4842352941176509 I
r0.8023529411764664 B
r1.04094117647059 ;
1,
b10101001 4
1-
#177000000
0,
0-
#177500000
r1.040000000000002 ;
r0.7999999999999958 B
r0.4800000000000038 I
r0.7999999999999958 P
1,
b10101010 4
1-
#178000000
0,
0-
